Lab 1/measurement 2/F0002CH1.CSV

Record Length,2.500000e+03,,  -0.000000157000,  -0.04000,
Sample Interval,1.000000e-10,,  -0.000000156900,  -0.04000,
Trigger Point,1.570000000000e+03,,  -0.000000156800,  -0.04000,
,,,  -0.000000156700,  -0.04000,
,,,  -0.000000156600,  -0.04000,
,,,  -0.000000156500,  -0.04000,
Source,CH1,,  -0.000000156400,   0.00000,
Vertical Units,V,,  -0.000000156300,   0.00000,
Vertical Scale,1.000000e+00,,  -0.000000156200,   0.00000,
Vertical Offset,-2.000000e+00,,  -0.000000156100,  -0.04000,
Horizontal Units,s,,  -0.000000156000,  -0.04000,
Horizontal Scale,2.500000e-08,,  -0.000000155900,  -0.04000,
Pt Fmt,Y,,  -0.000000155800,  -0.04000,
Yzero,0.000000e+00,,  -0.000000155700,  -0.04000,
Probe Atten,1.000000e+01,,  -0.000000155600,  -0.04000,
Model Number,TDS2012B,,  -0.000000155500,  -0.04000,
Serial Number,C051835,,  -0.000000155400,  -0.04000,
Firmware Version,FV:v22.01,,  -0.000000155300,  -0.04000,
,,,-00.000000155200,  -0.04000,
,,,-00.000000155100,  -0.04000,
,,,-00.000000155000,  -0.04000,
,,,-00.000000154900,  -0.04000,
,,,-00.000000154800,  -0.04000,
,,,-00.000000154700,  -0.04000,
,,,-00.000000154600,  -0.04000,
,,,-00.000000154500,  -0.04000,
,,,-00.000000154400,  -0.04000,
,,,-00.000000154300,  -0.04000,
,,,-00.000000154200,  -0.04000,
,,,-00.000000154100,  -0.04000,
,,,-00.000000154000,  -0.04000,
,,,-00.000000153900,  -0.04000,
,,,-00.000000153800,  -0.04000,
,,,-00.000000153700,  -0.04000,
,,,-00.000000153600,  -0.04000,
,,,-00.000000153500,  -0.04000,
,,,-00.000000153400,  -0.04000,
,,,-00.000000153300,  -0.04000,
,,,-00.000000153200,  -0.04000,
,,,-00.000000153100,  -0.04000,
,,,-00.000000153000,  -0.04000,
,,,-00.000000152900,  -0.04000,
,,,-00.000000152800,  -0.04000,
,,,-00.000000152700,  -0.04000,
,,,-00.000000152600,  -0.04000,
,,,-00.000000152500,  -0.04000,
,,,-00.000000152400,  -0.04000,
,,,-00.000000152300,  -0.04000,
,,,-00.000000152200,  -0.04000,
,,,-00.000000152100,  -0.04000,
,,,-00.000000152000,  -0.04000,
,,,-00.000000151900,  -0.04000,
,,,-00.000000151800,  -0.04000,
,,,-00.000000151700,  -0.04000,
,,,-00.000000151600,  -0.04000,
,,,-00.000000151500,  -0.04000,
,,,-00.000000151400,  -0.04000,
,,,-00.000000151300,  -0.04000,
,,,-00.000000151200,  -0.04000,
,,,-00.000000151100,  -0.04000,
,,,-00.000000151000,  -0.04000,
,,,-00.000000150900,  -0.04000,
,,,-00.000000150800,  -0.04000,
,,,-00.000000150700,  -0.04000,
,,,-00.000000150600,  -0.04000,
,,,-00.000000150500,  -0.04000,
,,,-00.000000150400,  -0.04000,
,,,-00.000000150300,  -0.04000,
,,,-00.000000150200,  -0.04000,
,,,-00.000000150100,  -0.04000,
,,,-00.000000150000,  -0.04000,
,,,-00.000000149900,  -0.04000,
,,,-00.000000149800,  -0.04000,
,,,-00.000000149700,  -0.04000,
,,,-00.000000149600,  -0.04000,
,,,-00.000000149500,  -0.04000,
,,,-00.000000149400,   0.00000,
,,,-00.000000149300,   0.00000,
,,,-00.000000149200,   0.00000,
,,,-00.000000149100,   0.00000,
,,,-00.000000149000,   0.00000,
,,,-00.000000148900,   0.00000,
,,,-00.000000148800,   0.00000,
,,,-00.000000148700,   0.00000,
,,,-00.000000148600,   0.00000,
,,,-00.000000148500,   0.00000,
,,,-00.000000148400,   0.00000,
,,,-00.000000148300,   0.00000,
,,,-00.000000148200,   0.00000,
,,,-00.000000148100,  -0.04000,
,,,-00.000000148000,  -0.04000,
,,,-00.000000147900,  -0.04000,
,,,-00.000000147800,  -0.04000,
,,,-00.000000147700,  -0.04000,
,,,-00.000000147600,  -0.04000,
,,,-00.000000147500,  -0.04000,
,,,-00.000000147400,  -0.04000,
,,,-00.000000147300,  -0.04000,
,,,-00.000000147200,  -0.04000,
,,,-00.000000147100,  -0.04000,
,,,-00.000000147000,  -0.04000,
,,,-00.000000146900,  -0.04000,
,,,-00.000000146800,  -0.04000,
,,,-00.000000146700,  -0.04000,
,,,-00.000000146600,  -0.04000,
,,,-00.000000146500,  -0.04000,
,,,-00.000000146400,  -0.04000,
,,,-00.000000146300,  -0.04000,
,,,-00.000000146200,  -0.04000,
,,,-00.000000146100,  -0.04000,
,,,-00.000000146000,  -0.04000,
,,,-00.000000145900,  -0.04000,
,,,-00.000000145800,  -0.04000,
,,,-00.000000145700,  -0.04000,
,,,-00.000000145600,  -0.04000,
,,,-00.000000145500,  -0.04000,
,,,-00.000000145400,  -0.04000,
,,,-00.000000145300,  -0.04000,
,,,-00.000000145200,  -0.04000,
,,,-00.000000145100,  -0.04000,
,,,-00.000000145000,  -0.04000,
,,,-00.000000144900,  -0.04000,
,,,-00.000000144800,  -0.04000,
,,,-00.000000144700,  -0.04000,
,,,-00.000000144600,  -0.04000,
,,,-00.000000144500,  -0.04000,
,,,-00.000000144400,  -0.04000,
,,,-00.000000144300,  -0.04000,
,,,-00.000000144200,  -0.04000,
,,,-00.000000144100,  -0.04000,
,,,-00.000000144000,  -0.04000,
,,,-00.000000143900,  -0.04000,
,,,-00.000000143800,  -0.04000,
,,,-00.000000143700,  -0.04000,
,,,-00.000000143600,  -0.04000,
,,,-00.000000143500,  -0.04000,
,,,-00.000000143400,  -0.04000,
,,,-00.000000143300,  -0.04000,
,,,-00.000000143200,  -0.04000,
,,,-00.000000143100,  -0.04000,
,,,-00.000000143000,  -0.04000,
,,,-00.000000142900,  -0.04000,
,,,-00.000000142800,  -0.04000,
,,,-00.000000142700,  -0.04000,
,,,-00.000000142600,  -0.04000,
,,,-00.000000142500,  -0.04000,
,,,-00.000000142400,   0.00000,
,,,-00.000000142300,   0.00000,
,,,-00.000000142200,   0.00000,
,,,-00.000000142100,   0.00000,
,,,-00.000000142000,  -0.04000,
,,,-00.000000141900,  -0.04000,
,,,-00.000000141800,  -0.04000,
,,,-00.000000141700,  -0.04000,
,,,-00.000000141600,  -0.04000,
,,,-00.000000141500,  -0.04000,
,,,-00.000000141400,  -0.04000,
,,,-00.000000141300,  -0.04000,
,,,-00.000000141200,  -0.08000,
,,,-00.000000141100,  -0.08000,
,,,-00.000000141000,  -0.08000,
,,,-00.000000140900,  -0.08000,
,,,-00.000000140800,  -0.08000,
,,,-00.000000140700,  -0.08000,
,,,-00.000000140600,  -0.08000,
,,,-00.000000140500,  -0.08000,
,,,-00.000000140400,  -0.08000,
,,,-00.000000140300,  -0.08000,
,,,-00.000000140200,  -0.08000,
,,,-00.000000140100,  -0.08000,
,,,-00.000000140000,  -0.08000,
,,,-00.000000139900,  -0.08000,
,,,-00.000000139800,  -0.08000,
,,,-00.000000139700,  -0.08000,
,,,-00.000000139600,  -0.08000,
,,,-00.000000139500,  -0.08000,
,,,-00.000000139400,  -0.08000,
,,,-00.000000139300,  -0.04000,
,,,-00.000000139200,  -0.04000,
,,,-00.000000139100,  -0.04000,
,,,-00.000000139000,  -0.04000,
,,,-00.000000138900,   0.00000,
,,,-00.000000138800,   0.00000,
,,,-00.000000138700,   0.00000,
,,,-00.000000138600,   0.00000,
,,,-00.000000138500,   0.00000,
,,,-00.000000138400,   0.04000,
,,,-00.000000138300,   0.04000,
,,,-00.000000138200,   0.04000,
,,,-00.000000138100,   0.04000,
,,,-00.000000138000,   0.04000,
,,,-00.000000137900,   0.00000,
,,,-00.000000137800,   0.00000,
,,,-00.000000137700,   0.00000,
,,,-00.000000137600,   0.00000,
,,,-00.000000137500,   0.00000,
,,,-00.000000137400,   0.00000,
,,,-00.000000137300,   0.00000,
,,,-00.000000137200,   0.00000,
,,,-00.000000137100,  -0.04000,
,,,-00.000000137000,  -0.04000,
,,,-00.000000136900,  -0.04000,
,,,-00.000000136800,  -0.04000,
,,,-00.000000136700,  -0.04000,
,,,-00.000000136600,  -0.04000,
,,,-00.000000136500,  -0.04000,
,,,-00.000000136400,  -0.04000,
,,,-00.000000136300,  -0.04000,
,,,-00.000000136200,  -0.04000,
,,,-00.000000136100,  -0.04000,
,,,-00.000000136000,  -0.04000,
,,,-00.000000135900,  -0.04000,
,,,-00.000000135800,  -0.04000,
,,,-00.000000135700,  -0.04000,
,,,-00.000000135600,  -0.04000,
,,,-00.000000135500,  -0.04000,
,,,-00.000000135400,  -0.04000,
,,,-00.000000135300,  -0.04000,
,,,-00.000000135200,  -0.04000,
,,,-00.000000135100,  -0.04000,
,,,-00.000000135000,  -0.04000,
,,,-00.000000134900,  -0.04000,
,,,-00.000000134800,  -0.04000,
,,,-00.000000134700,  -0.04000,
,,,-00.000000134600,  -0.04000,
,,,-00.000000134500,  -0.04000,
,,,-00.000000134400,  -0.04000,
,,,-00.000000134300,  -0.04000,
,,,-00.000000134200,  -0.04000,
,,,-00.000000134100,  -0.04000,
,,,-00.000000134000,  -0.04000,
,,,-00.000000133900,  -0.04000,
,,,-00.000000133800,  -0.04000,
,,,-00.000000133700,  -0.04000,
,,,-00.000000133600,  -0.04000,
,,,-00.000000133500,  -0.04000,
,,,-00.000000133400,   0.00000,
,,,-00.000000133300,   0.00000,
,,,-00.000000133200,   0.00000,
,,,-00.000000133100,   0.00000,
,,,-00.000000133000,   0.00000,
,,,-00.000000132900,   0.00000,
,,,-00.000000132800,   0.00000,
,,,-00.000000132700,   0.00000,
,,,-00.000000132600,   0.00000,
,,,-00.000000132500,   0.00000,
,,,-00.000000132400,   0.00000,
,,,-00.000000132300,   0.00000,
,,,-00.000000132200,   0.00000,
,,,-00.000000132100,  -0.04000,
,,,-00.000000132000,  -0.04000,
,,,-00.000000131900,  -0.04000,
,,,-00.000000131800,  -0.04000,
,,,-00.000000131700,  -0.04000,
,,,-00.000000131600,  -0.04000,
,,,-00.000000131500,  -0.04000,
,,,-00.000000131400,  -0.04000,
,,,-00.000000131300,  -0.04000,
,,,-00.000000131200,  -0.04000,
,,,-00.000000131100,  -0.04000,
,,,-00.000000131000,  -0.04000,
,,,-00.000000130900,  -0.04000,
,,,-00.000000130800,  -0.04000,
,,,-00.000000130700,  -0.04000,
,,,-00.000000130600,  -0.04000,
,,,-00.000000130500,  -0.04000,
,,,-00.000000130400,  -0.04000,
,,,-00.000000130300,  -0.04000,
,,,-00.000000130200,  -0.04000,
,,,-00.000000130100,  -0.08000,
,,,-00.000000130000,  -0.08000,
,,,-00.000000129900,  -0.08000,
,,,-00.000000129800,  -0.08000,
,,,-00.000000129700,  -0.08000,
,,,-00.000000129600,  -0.08000,
,,,-00.000000129500,  -0.08000,
,,,-00.000000129400,  -0.08000,
,,,-00.000000129300,  -0.08000,
,,,-00.000000129200,  -0.08000,
,,,-00.000000129100,  -0.08000,
,,,-00.000000129000,  -0.08000,
,,,-00.000000128900,  -0.08000,
,,,-00.000000128800,  -0.08000,
,,,-00.000000128700,  -0.08000,
,,,-00.000000128600,  -0.08000,
,,,-00.000000128500,  -0.08000,
,,,-00.000000128400,  -0.08000,
,,,-00.000000128300,  -0.04000,
,,,-00.000000128200,  -0.04000,
,,,-00.000000128100,  -0.04000,
,,,-00.000000128000,  -0.04000,
,,,-00.000000127900,  -0.04000,
,,,-00.000000127800,  -0.04000,
,,,-00.000000127700,  -0.04000,
,,,-00.000000127600,  -0.04000,
,,,-00.000000127500,   0.00000,
,,,-00.000000127400,   0.00000,
,,,-00.000000127300,   0.00000,
,,,-00.000000127200,   0.00000,
,,,-00.000000127100,   0.00000,
,,,-00.000000127000,  -0.04000,
,,,-00.000000126900,  -0.04000,
,,,-00.000000126800,  -0.04000,
,,,-00.000000126700,  -0.04000,
,,,-00.000000126600,  -0.04000,
,,,-00.000000126500,  -0.04000,
,,,-00.000000126400,  -0.04000,
,,,-00.000000126300,  -0.04000,
,,,-00.000000126200,  -0.08000,
,,,-00.000000126100,  -0.08000,
,,,-00.000000126000,  -0.08000,
,,,-00.000000125900,  -0.08000,
,,,-00.000000125800,  -0.08000,
,,,-00.000000125700,  -0.08000,
,,,-00.000000125600,  -0.08000,
,,,-00.000000125500,  -0.08000,
,,,-00.000000125400,  -0.08000,
,,,-00.000000125300,  -0.08000,
,,,-00.000000125200,  -0.08000,
,,,-00.000000125100,  -0.08000,
,,,-00.000000125000,  -0.08000,
,,,-00.000000124900,  -0.08000,
,,,-00.000000124800,  -0.08000,
,,,-00.000000124700,  -0.08000,
,,,-00.000000124600,  -0.08000,
,,,-00.000000124500,  -0.08000,
,,,-00.000000124400,  -0.04000,
,,,-00.000000124300,  -0.04000,
,,,-00.000000124200,  -0.04000,
,,,-00.000000124100,  -0.04000,
,,,-00.000000124000,  -0.04000,
,,,-00.000000123900,  -0.04000,
,,,-00.000000123800,  -0.04000,
,,,-00.000000123700,  -0.04000,
,,,-00.000000123600,  -0.04000,
,,,-00.000000123500,  -0.04000,
,,,-00.000000123400,  -0.04000,
,,,-00.000000123300,  -0.04000,
,,,-00.000000123200,  -0.04000,
,,,-00.000000123100,  -0.04000,
,,,-00.000000123000,  -0.04000,
,,,-00.000000122900,  -0.04000,
,,,-00.000000122800,  -0.04000,
,,,-00.000000122700,  -0.04000,
,,,-00.000000122600,  -0.04000,
,,,-00.000000122500,  -0.04000,
,,,-00.000000122400,  -0.04000,
,,,-00.000000122300,  -0.04000,
,,,-00.000000122200,  -0.04000,
,,,-00.000000122100,  -0.04000,
,,,-00.000000122000,  -0.04000,
,,,-00.000000121900,  -0.04000,
,,,-00.000000121800,  -0.04000,
,,,-00.000000121700,  -0.04000,
,,,-00.000000121600,  -0.04000,
,,,-00.000000121500,  -0.04000,
,,,-00.000000121400,  -0.04000,
,,,-00.000000121300,  -0.04000,
,,,-00.000000121200,  -0.04000,
,,,-00.000000121100,  -0.08000,
,,,-00.000000121000,  -0.08000,
,,,-00.000000120900,  -0.08000,
,,,-00.000000120800,  -0.08000,
,,,-00.000000120700,  -0.08000,
,,,-00.000000120600,  -0.08000,
,,,-00.000000120500,  -0.08000,
,,,-00.000000120400,  -0.08000,
,,,-00.000000120300,  -0.08000,
,,,-00.000000120200,  -0.08000,
,,,-00.000000120100,  -0.08000,
,,,-00.000000120000,  -0.08000,
,,,-00.000000119900,  -0.08000,
,,,-00.000000119800,  -0.08000,
,,,-00.000000119700,  -0.08000,
,,,-00.000000119600,  -0.08000,
,,,-00.000000119500,  -0.08000,
,,,-00.000000119400,  -0.08000,
,,,-00.000000119300,  -0.08000,
,,,-00.000000119200,  -0.08000,
,,,-00.000000119100,  -0.08000,
,,,-00.000000119000,  -0.08000,
,,,-00.000000118900,  -0.08000,
,,,-00.000000118800,  -0.08000,
,,,-00.000000118700,  -0.08000,
,,,-00.000000118600,  -0.08000,
,,,-00.000000118500,  -0.08000,
,,,-00.000000118400,  -0.08000,
,,,-00.000000118300,  -0.08000,
,,,-00.000000118200,  -0.08000,
,,,-00.000000118100,  -0.08000,
,,,-00.000000118000,  -0.08000,
,,,-00.000000117900,  -0.08000,
,,,-00.000000117800,  -0.08000,
,,,-00.000000117700,  -0.08000,
,,,-00.000000117600,  -0.08000,
,,,-00.000000117500,  -0.08000,
,,,-00.000000117400,  -0.04000,
,,,-00.000000117300,  -0.04000,
,,,-00.000000117200,  -0.04000,
,,,-00.000000117100,  -0.04000,
,,,-00.000000117000,  -0.04000,
,,,-00.000000116900,  -0.04000,
,,,-00.000000116800,  -0.04000,
,,,-00.000000116700,  -0.04000,
,,,-00.000000116600,  -0.04000,
,,,-00.000000116500,  -0.04000,
,,,-00.000000116400,  -0.04000,
,,,-00.000000116300,  -0.04000,
,,,-00.000000116200,  -0.04000,
,,,-00.000000116100,  -0.04000,
,,,-00.000000116000,  -0.04000,
,,,-00.000000115900,  -0.04000,
,,,-00.000000115800,  -0.04000,
,,,-00.000000115700,  -0.04000,
,,,-00.000000115600,  -0.04000,
,,,-00.000000115500,  -0.04000,
,,,-00.000000115400,  -0.04000,
,,,-00.000000115300,  -0.04000,
,,,-00.000000115200,  -0.04000,
,,,-00.000000115100,  -0.04000,
,,,-00.000000115000,  -0.04000,
,,,-00.000000114900,  -0.04000,
,,,-00.000000114800,  -0.04000,
,,,-00.000000114700,  -0.04000,
,,,-00.000000114600,  -0.04000,
,,,-00.000000114500,  -0.04000,
,,,-00.000000114400,  -0.04000,
,,,-00.000000114300,  -0.04000,
,,,-00.000000114200,  -0.04000,
,,,-00.000000114100,  -0.04000,
,,,-00.000000114000,  -0.04000,
,,,-00.000000113900,  -0.04000,
,,,-00.000000113800,  -0.04000,
,,,-00.000000113700,  -0.04000,
,,,-00.000000113600,  -0.04000,
,,,-00.000000113500,  -0.04000,
,,,-00.000000113400,   0.00000,
,,,-00.000000113300,   0.00000,
,,,-00.000000113200,   0.00000,
,,,-00.000000113100,   0.00000,
,,,-00.000000113000,   0.00000,
,,,-00.000000112900,   0.00000,
,,,-00.000000112800,   0.00000,
,,,-00.000000112700,   0.00000,
,,,-00.000000112600,   0.00000,
,,,-00.000000112500,   0.00000,
,,,-00.000000112400,   0.00000,
,,,-00.000000112300,   0.00000,
,,,-00.000000112200,   0.00000,
,,,-00.000000112100,   0.00000,
,,,-00.000000112000,   0.00000,
,,,-00.000000111900,   0.00000,
,,,-00.000000111800,   0.00000,
,,,-00.000000111700,   0.00000,
,,,-00.000000111600,   0.00000,
,,,-00.000000111500,   0.00000,
,,,-00.000000111400,   0.00000,
,,,-00.000000111300,   0.00000,
,,,-00.000000111200,   0.00000,
,,,-00.000000111100,   0.00000,
,,,-00.000000111000,   0.00000,
,,,-00.000000110900,   0.00000,
,,,-00.000000110800,   0.00000,
,,,-00.000000110700,   0.00000,
,,,-00.000000110600,   0.00000,
,,,-00.000000110500,   0.00000,
,,,-00.000000110400,   0.04000,
,,,-00.000000110300,   0.04000,
,,,-00.000000110200,   0.04000,
,,,-00.000000110100,   0.04000,
,,,-00.000000110000,   0.04000,
,,,-00.000000109900,   0.04000,
,,,-00.000000109800,   0.04000,
,,,-00.000000109700,   0.04000,
,,,-00.000000109600,   0.04000,
,,,-00.000000109500,   0.04000,
,,,-00.000000109400,   0.04000,
,,,-00.000000109300,   0.08000,
,,,-00.000000109200,   0.08000,
,,,-00.000000109100,   0.08000,
,,,-00.000000109000,   0.08000,
,,,-00.000000108900,   0.08000,
,,,-00.000000108800,   0.12000,
,,,-00.000000108700,   0.12000,
,,,-00.000000108600,   0.12000,
,,,-00.000000108500,   0.12000,
,,,-00.000000108400,   0.12000,
,,,-00.000000108300,   0.16000,
,,,-00.000000108200,   0.16000,
,,,-00.000000108100,   0.16000,
,,,-00.000000108000,   0.16000,
,,,-00.000000107900,   0.16000,
,,,-00.000000107800,   0.20000,
,,,-00.000000107700,   0.20000,
,,,-00.000000107600,   0.20000,
,,,-00.000000107500,   0.20000,
,,,-00.000000107400,   0.20000,
,,,-00.000000107300,   0.24000,
,,,-00.000000107200,   0.24000,
,,,-00.000000107100,   0.24000,
,,,-00.000000107000,   0.24000,
,,,-00.000000106900,   0.24000,
,,,-00.000000106800,   0.24000,
,,,-00.000000106700,   0.28000,
,,,-00.000000106600,   0.28000,
,,,-00.000000106500,   0.28000,
,,,-00.000000106400,   0.28000,
,,,-00.000000106300,   0.32000,
,,,-00.000000106200,   0.32000,
,,,-00.000000106100,   0.32000,
,,,-00.000000106000,   0.36000,
,,,-00.000000105900,   0.36000,
,,,-00.000000105800,   0.36000,
,,,-00.000000105700,   0.40000,
,,,-00.000000105600,   0.40000,
,,,-00.000000105500,   0.44000,
,,,-00.000000105400,   0.44000,
,,,-00.000000105300,   0.48000,
,,,-00.000000105200,   0.48000,
,,,-00.000000105100,   0.52000,
,,,-00.000000105000,   0.52000,
,,,-00.000000104900,   0.56000,
,,,-00.000000104800,   0.56000,
,,,-00.000000104700,   0.60000,
,,,-00.000000104600,   0.64000,
,,,-00.000000104500,   0.64000,
,,,-00.000000104400,   0.68000,
,,,-00.000000104300,   0.72000,
,,,-00.000000104200,   0.72000,
,,,-00.000000104100,   0.76000,
,,,-00.000000104000,   0.76000,
,,,-00.000000103900,   0.80000,
,,,-00.000000103800,   0.84000,
,,,-00.000000103700,   0.84000,
,,,-00.000000103600,   0.88000,
,,,-00.000000103500,   0.88000,
,,,-00.000000103400,   0.92000,
,,,-00.000000103300,   0.96000,
,,,-00.000000103200,   0.96000,
,,,-00.000000103100,   1.00000,
,,,-00.000000103000,   1.04000,
,,,-00.000000102900,   1.04000,
,,,-00.000000102800,   1.08000,
,,,-00.000000102700,   1.12000,
,,,-00.000000102600,   1.12000,
,,,-00.000000102500,   1.16000,
,,,-00.000000102400,   1.20000,
,,,-00.000000102300,   1.24000,
,,,-00.000000102200,   1.24000,
,,,-00.000000102100,   1.28000,
,,,-00.000000102000,   1.32000,
,,,-00.000000101900,   1.32000,
,,,-00.000000101800,   1.36000,
,,,-00.000000101700,   1.40000,
,,,-00.000000101600,   1.40000,
,,,-00.000000101500,   1.44000,
,,,-00.000000101400,   1.48000,
,,,-00.000000101300,   1.52000,
,,,-00.000000101200,   1.56000,
,,,-00.000000101100,   1.60000,
,,,-00.000000101000,   1.60000,
,,,-00.000000100900,   1.64000,
,,,-00.000000100800,   1.68000,
,,,-00.000000100700,   1.76000,
,,,-00.000000100600,   1.80000,
,,,-00.000000100500,   1.84000,
,,,-00.000000100400,   1.88000,
,,,-00.000000100300,   1.92000,
,,,-00.000000100200,   1.96000,
,,,-00.000000100100,   1.96000,
,,,-00.000000100000,   2.00000,
,,,-00.000000099900,   2.04000,
,,,-00.000000099800,   2.08000,
,,,-00.000000099700,   2.12000,
,,,-00.000000099600,   2.16000,
,,,-00.000000099500,   2.20000,
,,,-00.000000099400,   2.24000,
,,,-00.000000099300,   2.28000,
,,,-00.000000099200,   2.32000,
,,,-00.000000099100,   2.32000,
,,,-00.000000099000,   2.36000,
,,,-00.000000098900,   2.40000,
,,,-00.000000098800,   2.44000,
,,,-00.000000098700,   2.48000,
,,,-00.000000098600,   2.52000,
,,,-00.000000098500,   2.56000,
,,,-00.000000098400,   2.60000,
,,,-00.000000098300,   2.64000,
,,,-00.000000098200,   2.68000,
,,,-00.000000098100,   2.68000,
,,,-00.000000098000,   2.72000,
,,,-00.000000097900,   2.76000,
,,,-00.000000097800,   2.80000,
,,,-00.000000097700,   2.84000,
,,,-00.000000097600,   2.88000,
,,,-00.000000097500,   2.92000,
,,,-00.000000097400,   2.96000,
,,,-00.000000097300,   3.00000,
,,,-00.000000097200,   3.04000,
,,,-00.000000097100,   3.04000,
,,,-00.000000097000,   3.08000,
,,,-00.000000096900,   3.12000,
,,,-00.000000096800,   3.16000,
,,,-00.000000096700,   3.20000,
,,,-00.000000096600,   3.24000,
,,,-00.000000096500,   3.28000,
,,,-00.000000096400,   3.32000,
,,,-00.000000096300,   3.36000,
,,,-00.000000096200,   3.40000,
,,,-00.000000096100,   3.40000,
,,,-00.000000096000,   3.44000,
,,,-00.000000095900,   3.48000,
,,,-00.000000095800,   3.52000,
,,,-00.000000095700,   3.56000,
