Lab 1/measurement 5/F0006CH1.CSV

Record Length,2.500000e+03,,  -0.000000316000,  -0.04000,
Sample Interval,2.000000e-10,,  -0.000000315800,  -0.04000,
Trigger Point,1.580000000000e+03,,  -0.000000315600,  -0.04000,
,,,  -0.000000315400,  -0.04000,
,,,  -0.000000315200,  -0.04000,
,,,  -0.000000315000,  -0.04000,
Source,CH1,,  -0.000000314800,  -0.04000,
Vertical Units,V,,  -0.000000314600,  -0.04000,
Vertical Scale,1.000000e+00,,  -0.000000314400,  -0.04000,
Vertical Offset,-2.000000e+00,,  -0.000000314200,   0.00000,
Horizontal Units,s,,  -0.000000314000,  -0.04000,
Horizontal Scale,5.000000e-08,,  -0.000000313800,  -0.04000,
Pt Fmt,Y,,  -0.000000313600,  -0.04000,
Yzero,0.000000e+00,,  -0.000000313400,  -0.04000,
Probe Atten,1.000000e+01,,  -0.000000313200,  -0.04000,
Model Number,TDS2012B,,  -0.000000313000,  -0.04000,
Serial Number,C051835,,  -0.000000312800,  -0.04000,
Firmware Version,FV:v22.01,,  -0.000000312600,  -0.04000,
,,,-00.000000312400,  -0.04000,
,,,-00.000000312200,  -0.04000,
,,,-00.000000312000,  -0.08000,
,,,-00.000000311800,  -0.08000,
,,,-00.000000311600,  -0.08000,
,,,-00.000000311400,  -0.08000,
,,,-00.000000311200,  -0.08000,
,,,-00.000000311000,  -0.08000,
,,,-00.000000310800,  -0.08000,
,,,-00.000000310600,  -0.08000,
,,,-00.000000310400,  -0.08000,
,,,-00.000000310200,  -0.04000,
,,,-00.000000310000,  -0.04000,
,,,-00.000000309800,  -0.04000,
,,,-00.000000309600,  -0.04000,
,,,-00.000000309400,  -0.04000,
,,,-00.000000309200,  -0.04000,
,,,-00.000000309000,  -0.04000,
,,,-00.000000308800,  -0.04000,
,,,-00.000000308600,  -0.04000,
,,,-00.000000308400,  -0.04000,
,,,-00.000000308200,  -0.04000,
,,,-00.000000308000,  -0.04000,
,,,-00.000000307800,  -0.04000,
,,,-00.000000307600,  -0.04000,
,,,-00.000000307400,  -0.04000,
,,,-00.000000307200,  -0.04000,
,,,-00.000000307000,  -0.04000,
,,,-00.000000306800,  -0.04000,
,,,-00.000000306600,  -0.04000,
,,,-00.000000306400,  -0.04000,
,,,-00.000000306200,   0.00000,
,,,-00.000000306000,  -0.04000,
,,,-00.000000305800,  -0.04000,
,,,-00.000000305600,  -0.04000,
,,,-00.000000305400,  -0.04000,
,,,-00.000000305200,  -0.04000,
,,,-00.000000305000,  -0.04000,
,,,-00.000000304800,  -0.04000,
,,,-00.000000304600,  -0.04000,
,,,-00.000000304400,  -0.04000,
,,,-00.000000304200,   0.00000,
,,,-00.000000304000,   0.00000,
,,,-00.000000303800,   0.00000,
,,,-00.000000303600,   0.00000,
,,,-00.000000303400,   0.00000,
,,,-00.000000303200,   0.00000,
,,,-00.000000303000,  -0.04000,
,,,-00.000000302800,  -0.04000,
,,,-00.000000302600,  -0.04000,
,,,-00.000000302400,  -0.04000,
,,,-00.000000302200,  -0.04000,
,,,-00.000000302000,  -0.04000,
,,,-00.000000301800,  -0.04000,
,,,-00.000000301600,  -0.04000,
,,,-00.000000301400,  -0.04000,
,,,-00.000000301200,   0.00000,
,,,-00.000000301000,  -0.04000,
,,,-00.000000300800,  -0.04000,
,,,-00.000000300600,  -0.04000,
,,,-00.000000300400,  -0.04000,
,,,-00.000000300200,  -0.04000,
,,,-00.000000300000,  -0.04000,
,,,-00.000000299800,  -0.04000,
,,,-00.000000299600,  -0.04000,
,,,-00.000000299400,  -0.04000,
,,,-00.000000299200,  -0.04000,
,,,-00.000000299000,  -0.04000,
,,,-00.000000298800,  -0.04000,
,,,-00.000000298600,  -0.04000,
,,,-00.000000298400,  -0.04000,
,,,-00.000000298200,  -0.04000,
,,,-00.000000298000,  -0.04000,
,,,-00.000000297800,  -0.04000,
,,,-00.000000297600,  -0.04000,
,,,-00.000000297400,  -0.04000,
,,,-00.000000297200,  -0.04000,
,,,-00.000000297000,  -0.04000,
,,,-00.000000296800,  -0.04000,
,,,-00.000000296600,  -0.04000,
,,,-00.000000296400,  -0.04000,
,,,-00.000000296200,   0.00000,
,,,-00.000000296000,  -0.04000,
,,,-00.000000295800,  -0.04000,
,,,-00.000000295600,  -0.04000,
,,,-00.000000295400,  -0.04000,
,,,-00.000000295200,  -0.04000,
,,,-00.000000295000,  -0.04000,
,,,-00.000000294800,  -0.04000,
,,,-00.000000294600,  -0.04000,
,,,-00.000000294400,  -0.04000,
,,,-00.000000294200,  -0.04000,
,,,-00.000000294000,  -0.04000,
,,,-00.000000293800,  -0.04000,
,,,-00.000000293600,  -0.04000,
,,,-00.000000293400,  -0.04000,
,,,-00.000000293200,  -0.04000,
,,,-00.000000293000,  -0.04000,
,,,-00.000000292800,  -0.04000,
,,,-00.000000292600,  -0.04000,
,,,-00.000000292400,  -0.04000,
,,,-00.000000292200,  -0.04000,
,,,-00.000000292000,  -0.08000,
,,,-00.000000291800,  -0.08000,
,,,-00.000000291600,  -0.08000,
,,,-00.000000291400,  -0.08000,
,,,-00.000000291200,  -0.08000,
,,,-00.000000291000,  -0.08000,
,,,-00.000000290800,  -0.08000,
,,,-00.000000290600,  -0.08000,
,,,-00.000000290400,  -0.08000,
,,,-00.000000290200,  -0.08000,
,,,-00.000000290000,  -0.08000,
,,,-00.000000289800,  -0.12000,
,,,-00.000000289600,  -0.12000,
,,,-00.000000289400,  -0.08000,
,,,-00.000000289200,  -0.08000,
,,,-00.000000289000,  -0.08000,
,,,-00.000000288800,  -0.08000,
,,,-00.000000288600,  -0.04000,
,,,-00.000000288400,  -0.04000,
,,,-00.000000288200,   0.00000,
,,,-00.000000288000,   0.00000,
,,,-00.000000287800,  -0.04000,
,,,-00.000000287600,  -0.04000,
,,,-00.000000287400,  -0.04000,
,,,-00.000000287200,  -0.04000,
,,,-00.000000287000,  -0.04000,
,,,-00.000000286800,  -0.04000,
,,,-00.000000286600,  -0.04000,
,,,-00.000000286400,  -0.04000,
,,,-00.000000286200,  -0.04000,
,,,-00.000000286000,  -0.04000,
,,,-00.000000285800,  -0.04000,
,,,-00.000000285600,  -0.04000,
,,,-00.000000285400,  -0.04000,
,,,-00.000000285200,  -0.04000,
,,,-00.000000285000,  -0.04000,
,,,-00.000000284800,  -0.04000,
,,,-00.000000284600,  -0.04000,
,,,-00.000000284400,  -0.04000,
,,,-00.000000284200,   0.00000,
,,,-00.000000284000,  -0.04000,
,,,-00.000000283800,  -0.04000,
,,,-00.000000283600,  -0.04000,
,,,-00.000000283400,  -0.04000,
,,,-00.000000283200,  -0.04000,
,,,-00.000000283000,  -0.04000,
,,,-00.000000282800,  -0.08000,
,,,-00.000000282600,  -0.08000,
,,,-00.000000282400,  -0.04000,
,,,-00.000000282200,  -0.04000,
,,,-00.000000282000,  -0.04000,
,,,-00.000000281800,  -0.04000,
,,,-00.000000281600,  -0.04000,
,,,-00.000000281400,  -0.04000,
,,,-00.000000281200,   0.00000,
,,,-00.000000281000,   0.00000,
,,,-00.000000280800,   0.00000,
,,,-00.000000280600,   0.00000,
,,,-00.000000280400,   0.00000,
,,,-00.000000280200,   0.00000,
,,,-00.000000280000,   0.00000,
,,,-00.000000279800,   0.00000,
,,,-00.000000279600,   0.00000,
,,,-00.000000279400,   0.00000,
,,,-00.000000279200,   0.00000,
,,,-00.000000279000,  -0.04000,
,,,-00.000000278800,  -0.04000,
,,,-00.000000278600,  -0.04000,
,,,-00.000000278400,  -0.04000,
,,,-00.000000278200,  -0.04000,
,,,-00.000000278000,  -0.04000,
,,,-00.000000277800,  -0.04000,
,,,-00.000000277600,  -0.04000,
,,,-00.000000277400,  -0.04000,
,,,-00.000000277200,  -0.04000,
,,,-00.000000277000,  -0.08000,
,,,-00.000000276800,  -0.08000,
,,,-00.000000276600,  -0.08000,
,,,-00.000000276400,  -0.08000,
,,,-00.000000276200,  -0.08000,
,,,-00.000000276000,  -0.08000,
,,,-00.000000275800,  -0.12000,
,,,-00.000000275600,  -0.12000,
,,,-00.000000275400,  -0.08000,
,,,-00.000000275200,  -0.08000,
,,,-00.000000275000,  -0.08000,
,,,-00.000000274800,  -0.08000,
,,,-00.000000274600,  -0.08000,
,,,-00.000000274400,  -0.08000,
,,,-00.000000274200,  -0.04000,
,,,-00.000000274000,  -0.04000,
,,,-00.000000273800,  -0.04000,
,,,-00.000000273600,  -0.04000,
,,,-00.000000273400,  -0.04000,
,,,-00.000000273200,  -0.04000,
,,,-00.000000273000,  -0.08000,
,,,-00.000000272800,  -0.08000,
,,,-00.000000272600,  -0.08000,
,,,-00.000000272400,  -0.08000,
,,,-00.000000272200,  -0.08000,
,,,-00.000000272000,  -0.08000,
,,,-00.000000271800,  -0.12000,
,,,-00.000000271600,  -0.12000,
,,,-00.000000271400,  -0.08000,
,,,-00.000000271200,  -0.08000,
,,,-00.000000271000,  -0.08000,
,,,-00.000000270800,  -0.08000,
,,,-00.000000270600,  -0.08000,
,,,-00.000000270400,  -0.08000,
,,,-00.000000270200,  -0.04000,
,,,-00.000000270000,  -0.04000,
,,,-00.000000269800,  -0.04000,
,,,-00.000000269600,  -0.04000,
,,,-00.000000269400,  -0.04000,
,,,-00.000000269200,  -0.04000,
,,,-00.000000269000,  -0.04000,
,,,-00.000000268800,  -0.04000,
,,,-00.000000268600,  -0.04000,
,,,-00.000000268400,  -0.04000,
,,,-00.000000268200,  -0.04000,
,,,-00.000000268000,  -0.04000,
,,,-00.000000267800,  -0.04000,
,,,-00.000000267600,  -0.04000,
,,,-00.000000267400,  -0.04000,
,,,-00.000000267200,  -0.04000,
,,,-00.000000267000,  -0.04000,
,,,-00.000000266800,  -0.04000,
,,,-00.000000266600,  -0.04000,
,,,-00.000000266400,  -0.04000,
,,,-00.000000266200,  -0.04000,
,,,-00.000000266000,  -0.04000,
,,,-00.000000265800,  -0.04000,
,,,-00.000000265600,  -0.04000,
,,,-00.000000265400,  -0.04000,
,,,-00.000000265200,  -0.04000,
,,,-00.000000265000,  -0.04000,
,,,-00.000000264800,  -0.04000,
,,,-00.000000264600,  -0.04000,
,,,-00.000000264400,  -0.04000,
,,,-00.000000264200,  -0.04000,
,,,-00.000000264000,  -0.08000,
,,,-00.000000263800,  -0.08000,
,,,-00.000000263600,  -0.08000,
,,,-00.000000263400,  -0.08000,
,,,-00.000000263200,  -0.08000,
,,,-00.000000263000,  -0.08000,
,,,-00.000000262800,  -0.08000,
,,,-00.000000262600,  -0.08000,
,,,-00.000000262400,  -0.08000,
,,,-00.000000262200,  -0.04000,
,,,-00.000000262000,  -0.04000,
,,,-00.000000261800,  -0.04000,
,,,-00.000000261600,  -0.04000,
,,,-00.000000261400,  -0.04000,
,,,-00.000000261200,  -0.04000,
,,,-00.000000261000,  -0.04000,
,,,-00.000000260800,  -0.04000,
,,,-00.000000260600,  -0.04000,
,,,-00.000000260400,  -0.04000,
,,,-00.000000260200,  -0.04000,
,,,-00.000000260000,  -0.04000,
,,,-00.000000259800,  -0.04000,
,,,-00.000000259600,  -0.04000,
,,,-00.000000259400,  -0.04000,
,,,-00.000000259200,  -0.04000,
,,,-00.000000259000,  -0.08000,
,,,-00.000000258800,  -0.08000,
,,,-00.000000258600,  -0.08000,
,,,-00.000000258400,  -0.08000,
,,,-00.000000258200,  -0.08000,
,,,-00.000000258000,  -0.08000,
,,,-00.000000257800,  -0.08000,
,,,-00.000000257600,  -0.08000,
,,,-00.000000257400,  -0.08000,
,,,-00.000000257200,  -0.04000,
,,,-00.000000257000,  -0.04000,
,,,-00.000000256800,  -0.04000,
,,,-00.000000256600,  -0.04000,
,,,-00.000000256400,  -0.04000,
,,,-00.000000256200,  -0.04000,
,,,-00.000000256000,  -0.04000,
,,,-00.000000255800,  -0.04000,
,,,-00.000000255600,  -0.04000,
,,,-00.000000255400,  -0.04000,
,,,-00.000000255200,  -0.04000,
,,,-00.000000255000,  -0.04000,
,,,-00.000000254800,  -0.04000,
,,,-00.000000254600,  -0.04000,
,,,-00.000000254400,  -0.04000,
,,,-00.000000254200,  -0.04000,
,,,-00.000000254000,  -0.04000,
,,,-00.000000253800,  -0.04000,
,,,-00.000000253600,  -0.04000,
,,,-00.000000253400,  -0.04000,
,,,-00.000000253200,   0.00000,
,,,-00.000000253000,   0.00000,
,,,-00.000000252800,   0.00000,
,,,-00.000000252600,   0.00000,
,,,-00.000000252400,   0.04000,
,,,-00.000000252200,   0.04000,
,,,-00.000000252000,   0.00000,
,,,-00.000000251800,   0.00000,
,,,-00.000000251600,  -0.04000,
,,,-00.000000251400,  -0.04000,
,,,-00.000000251200,  -0.04000,
,,,-00.000000251000,  -0.04000,
,,,-00.000000250800,  -0.08000,
,,,-00.000000250600,  -0.04000,
,,,-00.000000250400,  -0.04000,
,,,-00.000000250200,  -0.04000,
,,,-00.000000250000,  -0.04000,
,,,-00.000000249800,  -0.04000,
,,,-00.000000249600,  -0.04000,
,,,-00.000000249400,  -0.04000,
,,,-00.000000249200,  -0.04000,
,,,-00.000000249000,  -0.04000,
,,,-00.000000248800,  -0.04000,
,,,-00.000000248600,  -0.04000,
,,,-00.000000248400,  -0.04000,
,,,-00.000000248200,  -0.04000,
,,,-00.000000248000,  -0.04000,
,,,-00.000000247800,  -0.04000,
,,,-00.000000247600,  -0.04000,
,,,-00.000000247400,  -0.04000,
,,,-00.000000247200,   0.00000,
,,,-00.000000247000,   0.00000,
,,,-00.000000246800,   0.00000,
,,,-00.000000246600,   0.00000,
,,,-00.000000246400,   0.00000,
,,,-00.000000246200,   0.00000,
,,,-00.000000246000,  -0.04000,
,,,-00.000000245800,  -0.04000,
,,,-00.000000245600,  -0.04000,
,,,-00.000000245400,  -0.04000,
,,,-00.000000245200,  -0.04000,
,,,-00.000000245000,  -0.04000,
,,,-00.000000244800,  -0.04000,
,,,-00.000000244600,  -0.04000,
,,,-00.000000244400,  -0.04000,
,,,-00.000000244200,   0.00000,
,,,-00.000000244000,   0.00000,
,,,-00.000000243800,   0.00000,
,,,-00.000000243600,   0.00000,
,,,-00.000000243400,   0.00000,
,,,-00.000000243200,   0.00000,
,,,-00.000000243000,   0.00000,
,,,-00.000000242800,   0.00000,
,,,-00.000000242600,   0.00000,
,,,-00.000000242400,   0.00000,
,,,-00.000000242200,   0.00000,
,,,-00.000000242000,   0.00000,
,,,-00.000000241800,   0.00000,
,,,-00.000000241600,   0.00000,
,,,-00.000000241400,   0.00000,
,,,-00.000000241200,   0.00000,
,,,-00.000000241000,  -0.04000,
,,,-00.000000240800,  -0.04000,
,,,-00.000000240600,  -0.04000,
,,,-00.000000240400,  -0.04000,
,,,-00.000000240200,  -0.04000,
,,,-00.000000240000,  -0.08000,
,,,-00.000000239800,  -0.08000,
,,,-00.000000239600,  -0.08000,
,,,-00.000000239400,  -0.08000,
,,,-00.000000239200,  -0.08000,
,,,-00.000000239000,  -0.08000,
,,,-00.000000238800,  -0.08000,
,,,-00.000000238600,  -0.08000,
,,,-00.000000238400,  -0.08000,
,,,-00.000000238200,  -0.04000,
,,,-00.000000238000,  -0.04000,
,,,-00.000000237800,  -0.04000,
,,,-00.000000237600,  -0.04000,
,,,-00.000000237400,  -0.04000,
,,,-00.000000237200,  -0.04000,
,,,-00.000000237000,  -0.04000,
,,,-00.000000236800,  -0.04000,
,,,-00.000000236600,  -0.04000,
,,,-00.000000236400,  -0.04000,
,,,-00.000000236200,   0.00000,
,,,-00.000000236000,  -0.04000,
,,,-00.000000235800,  -0.04000,
,,,-00.000000235600,  -0.04000,
,,,-00.000000235400,  -0.04000,
,,,-00.000000235200,  -0.04000,
,,,-00.000000235000,  -0.04000,
,,,-00.000000234800,  -0.04000,
,,,-00.000000234600,  -0.04000,
,,,-00.000000234400,  -0.04000,
,,,-00.000000234200,  -0.04000,
,,,-00.000000234000,  -0.04000,
,,,-00.000000233800,  -0.04000,
,,,-00.000000233600,  -0.04000,
,,,-00.000000233400,  -0.04000,
,,,-00.000000233200,  -0.04000,
,,,-00.000000233000,  -0.04000,
,,,-00.000000232800,  -0.04000,
,,,-00.000000232600,  -0.04000,
,,,-00.000000232400,  -0.04000,
,,,-00.000000232200,   0.00000,
,,,-00.000000232000,   0.00000,
,,,-00.000000231800,  -0.04000,
,,,-00.000000231600,  -0.04000,
,,,-00.000000231400,  -0.04000,
,,,-00.000000231200,  -0.04000,
,,,-00.000000231000,  -0.08000,
,,,-00.000000230800,  -0.08000,
,,,-00.000000230600,  -0.08000,
,,,-00.000000230400,  -0.08000,
,,,-00.000000230200,  -0.08000,
,,,-00.000000230000,  -0.08000,
,,,-00.000000229800,  -0.08000,
,,,-00.000000229600,  -0.08000,
,,,-00.000000229400,  -0.08000,
,,,-00.000000229200,  -0.04000,
,,,-00.000000229000,  -0.08000,
,,,-00.000000228800,  -0.08000,
,,,-00.000000228600,  -0.08000,
,,,-00.000000228400,  -0.08000,
,,,-00.000000228200,  -0.08000,
,,,-00.000000228000,  -0.08000,
,,,-00.000000227800,  -0.08000,
,,,-00.000000227600,  -0.08000,
,,,-00.000000227400,  -0.08000,
,,,-00.000000227200,  -0.04000,
,,,-00.000000227000,  -0.04000,
,,,-00.000000226800,  -0.04000,
,,,-00.000000226600,  -0.04000,
,,,-00.000000226400,  -0.04000,
,,,-00.000000226200,   0.00000,
,,,-00.000000226000,   0.00000,
,,,-00.000000225800,   0.00000,
,,,-00.000000225600,   0.00000,
,,,-00.000000225400,   0.00000,
,,,-00.000000225200,   0.00000,
,,,-00.000000225000,  -0.04000,
,,,-00.000000224800,  -0.04000,
,,,-00.000000224600,  -0.08000,
,,,-00.000000224400,  -0.08000,
,,,-00.000000224200,  -0.08000,
,,,-00.000000224000,  -0.12000,
,,,-00.000000223800,  -0.12000,
,,,-00.000000223600,  -0.12000,
,,,-00.000000223400,  -0.12000,
,,,-00.000000223200,  -0.08000,
,,,-00.000000223000,  -0.08000,
,,,-00.000000222800,  -0.08000,
,,,-00.000000222600,  -0.04000,
,,,-00.000000222400,  -0.04000,
,,,-00.000000222200,   0.00000,
,,,-00.000000222000,   0.00000,
,,,-00.000000221800,  -0.04000,
,,,-00.000000221600,  -0.04000,
,,,-00.000000221400,  -0.04000,
,,,-00.000000221200,  -0.04000,
,,,-00.000000221000,  -0.04000,
,,,-00.000000220800,  -0.04000,
,,,-00.000000220600,  -0.04000,
,,,-00.000000220400,  -0.04000,
,,,-00.000000220200,   0.00000,
,,,-00.000000220000,  -0.04000,
,,,-00.000000219800,  -0.04000,
,,,-00.000000219600,  -0.04000,
,,,-00.000000219400,  -0.04000,
,,,-00.000000219200,  -0.04000,
,,,-00.000000219000,  -0.04000,
,,,-00.000000218800,  -0.04000,
,,,-00.000000218600,  -0.04000,
,,,-00.000000218400,  -0.04000,
,,,-00.000000218200,   0.00000,
,,,-00.000000218000,   0.00000,
,,,-00.000000217800,   0.00000,
,,,-00.000000217600,   0.00000,
,,,-00.000000217400,   0.00000,
,,,-00.000000217200,   0.00000,
,,,-00.000000217000,  -0.04000,
,,,-00.000000216800,  -0.04000,
,,,-00.000000216600,  -0.04000,
,,,-00.000000216400,  -0.04000,
,,,-00.000000216200,  -0.04000,
,,,-00.000000216000,  -0.04000,
,,,-00.000000215800,  -0.04000,
,,,-00.000000215600,  -0.04000,
,,,-00.000000215400,  -0.04000,
,,,-00.000000215200,   0.00000,
,,,-00.000000215000,   0.00000,
,,,-00.000000214800,   0.00000,
,,,-00.000000214600,   0.00000,
,,,-00.000000214400,   0.00000,
,,,-00.000000214200,   0.00000,
,,,-00.000000214000,   0.00000,
,,,-00.000000213800,   0.00000,
,,,-00.000000213600,   0.00000,
,,,-00.000000213400,   0.00000,
,,,-00.000000213200,   0.00000,
,,,-00.000000213000,   0.00000,
,,,-00.000000212800,   0.00000,
,,,-00.000000212600,   0.00000,
,,,-00.000000212400,   0.00000,
,,,-00.000000212200,   0.04000,
,,,-00.000000212000,   0.04000,
,,,-00.000000211800,   0.04000,
,,,-00.000000211600,   0.04000,
,,,-00.000000211400,   0.04000,
,,,-00.000000211200,   0.04000,
,,,-00.000000211000,   0.04000,
,,,-00.000000210800,   0.04000,
,,,-00.000000210600,   0.04000,
,,,-00.000000210400,   0.04000,
,,,-00.000000210200,   0.08000,
,,,-00.000000210000,   0.08000,
,,,-00.000000209800,   0.08000,
,,,-00.000000209600,   0.08000,
,,,-00.000000209400,   0.08000,
,,,-00.000000209200,   0.12000,
,,,-00.000000209000,   0.12000,
,,,-00.000000208800,   0.12000,
,,,-00.000000208600,   0.16000,
,,,-00.000000208400,   0.16000,
,,,-00.000000208200,   0.20000,
,,,-00.000000208000,   0.20000,
,,,-00.000000207800,   0.24000,
,,,-00.000000207600,   0.24000,
,,,-00.000000207400,   0.28000,
,,,-00.000000207200,   0.32000,
,,,-00.000000207000,   0.32000,
,,,-00.000000206800,   0.36000,
,,,-00.000000206600,   0.36000,
,,,-00.000000206400,   0.40000,
,,,-00.000000206200,   0.44000,
,,,-00.000000206000,   0.44000,
,,,-00.000000205800,   0.48000,
,,,-00.000000205600,   0.48000,
,,,-00.000000205400,   0.52000,
,,,-00.000000205200,   0.56000,
,,,-00.000000205000,   0.60000,
,,,-00.000000204800,   0.64000,
,,,-00.000000204600,   0.68000,
,,,-00.000000204400,   0.72000,
,,,-00.000000204200,   0.80000,
,,,-00.000000204000,   0.84000,
,,,-00.000000203800,   0.92000,
,,,-00.000000203600,   0.96000,
,,,-00.000000203400,   1.04000,
,,,-00.000000203200,   1.12000,
,,,-00.000000203000,   1.16000,
,,,-00.000000202800,   1.24000,
,,,-00.000000202600,   1.28000,
,,,-00.000000202400,   1.36000,
,,,-00.000000202200,   1.44000,
,,,-00.000000202000,   1.48000,
,,,-00.000000201800,   1.56000,
,,,-00.000000201600,   1.60000,
,,,-00.000000201400,   1.68000,
,,,-00.000000201200,   1.76000,
,,,-00.000000201000,   1.80000,
,,,-00.000000200800,   1.88000,
,,,-00.000000200600,   1.92000,
,,,-00.000000200400,   2.00000,
,,,-00.000000200200,   2.08000,
,,,-00.000000200000,   2.16000,
,,,-00.000000199800,   2.24000,
,,,-00.000000199600,   2.32000,
,,,-00.000000199400,   2.40000,
,,,-00.000000199200,   2.48000,
,,,-00.000000199000,   2.56000,
,,,-00.000000198800,   2.60000,
,,,-00.000000198600,   2.68000,
,,,-00.000000198400,   2.76000,
,,,-00.000000198200,   2.84000,
,,,-00.000000198000,   2.88000,
,,,-00.000000197800,   2.96000,
,,,-00.000000197600,   3.00000,
,,,-00.000000197400,   3.08000,
,,,-00.000000197200,   3.16000,
,,,-00.000000197000,   3.20000,
,,,-00.000000196800,   3.28000,
,,,-00.000000196600,   3.36000,
,,,-00.000000196400,   3.44000,
,,,-00.000000196200,   3.52000,
,,,-00.000000196000,   3.56000,
,,,-00.000000195800,   3.64000,
,,,-00.000000195600,   3.68000,
,,,-00.000000195400,   3.76000,
,,,-00.000000195200,   3.84000,
,,,-00.000000195000,   3.88000,
,,,-00.000000194800,   3.96000,
,,,-00.000000194600,   4.04000,
,,,-00.000000194400,   4.08000,
,,,-00.000000194200,   4.16000,
,,,-00.000000194000,   4.20000,
,,,-00.000000193800,   4.24000,
,,,-00.000000193600,   4.28000,
,,,-00.000000193400,   4.36000,
