Lab 1/measurement 6/F0007CH1.CSV

Record Length,2.500000e+03,,  -0.000000350000,  -0.04000,
Sample Interval,2.000000e-10,,  -0.000000349800,  -0.04000,
Trigger Point,1.750000000000e+03,,  -0.000000349600,  -0.04000,
,,,  -0.000000349400,  -0.04000,
,,,  -0.000000349200,  -0.04000,
,,,  -0.000000349000,   0.00000,
Source,CH1,,  -0.000000348800,  -0.04000,
Vertical Units,V,,  -0.000000348600,  -0.04000,
Vertical Scale,1.000000e+00,,  -0.000000348400,  -0.04000,
Vertical Offset,-2.000000e+00,,  -0.000000348200,  -0.04000,
Horizontal Units,s,,  -0.000000348000,  -0.04000,
Horizontal Scale,5.000000e-08,,  -0.000000347800,  -0.04000,
Pt Fmt,Y,,  -0.000000347600,  -0.04000,
Yzero,0.000000e+00,,  -0.000000347400,  -0.04000,
Probe Atten,1.000000e+01,,  -0.000000347200,  -0.04000,
Model Number,TDS2012B,,  -0.000000347000,   0.00000,
Serial Number,C051835,,  -0.000000346800,   0.00000,
Firmware Version,FV:v22.01,,  -0.000000346600,   0.00000,
,,,-00.000000346400,   0.00000,
,,,-00.000000346200,   0.04000,
,,,-00.000000346000,   0.04000,
,,,-00.000000345800,   0.00000,
,,,-00.000000345600,   0.00000,
,,,-00.000000345400,   0.00000,
,,,-00.000000345200,  -0.04000,
,,,-00.000000345000,  -0.04000,
,,,-00.000000344800,  -0.08000,
,,,-00.000000344600,  -0.08000,
,,,-00.000000344400,  -0.08000,
,,,-00.000000344200,  -0.08000,
,,,-00.000000344000,  -0.08000,
,,,-00.000000343800,  -0.08000,
,,,-00.000000343600,  -0.08000,
,,,-00.000000343400,  -0.08000,
,,,-00.000000343200,  -0.08000,
,,,-00.000000343000,  -0.04000,
,,,-00.000000342800,  -0.04000,
,,,-00.000000342600,  -0.04000,
,,,-00.000000342400,  -0.04000,
,,,-00.000000342200,  -0.04000,
,,,-00.000000342000,  -0.04000,
,,,-00.000000341800,  -0.04000,
,,,-00.000000341600,  -0.04000,
,,,-00.000000341400,  -0.04000,
,,,-00.000000341200,  -0.04000,
,,,-00.000000341000,  -0.04000,
,,,-00.000000340800,  -0.04000,
,,,-00.000000340600,  -0.04000,
,,,-00.000000340400,  -0.04000,
,,,-00.000000340200,  -0.04000,
,,,-00.000000340000,   0.00000,
,,,-00.000000339800,  -0.04000,
,,,-00.000000339600,  -0.04000,
,,,-00.000000339400,  -0.04000,
,,,-00.000000339200,  -0.04000,
,,,-00.000000339000,  -0.04000,
,,,-00.000000338800,  -0.04000,
,,,-00.000000338600,  -0.04000,
,,,-00.000000338400,  -0.04000,
,,,-00.000000338200,  -0.04000,
,,,-00.000000338000,  -0.04000,
,,,-00.000000337800,  -0.08000,
,,,-00.000000337600,  -0.08000,
,,,-00.000000337400,  -0.08000,
,,,-00.000000337200,  -0.08000,
,,,-00.000000337000,  -0.08000,
,,,-00.000000336800,  -0.08000,
,,,-00.000000336600,  -0.12000,
,,,-00.000000336400,  -0.12000,
,,,-00.000000336200,  -0.08000,
,,,-00.000000336000,  -0.08000,
,,,-00.000000335800,  -0.08000,
,,,-00.000000335600,  -0.08000,
,,,-00.000000335400,  -0.08000,
,,,-00.000000335200,  -0.08000,
,,,-00.000000335000,  -0.04000,
,,,-00.000000334800,  -0.04000,
,,,-00.000000334600,  -0.04000,
,,,-00.000000334400,  -0.04000,
,,,-00.000000334200,   0.00000,
,,,-00.000000334000,   0.00000,
,,,-00.000000333800,  -0.04000,
,,,-00.000000333600,  -0.04000,
,,,-00.000000333400,  -0.04000,
,,,-00.000000333200,  -0.04000,
,,,-00.000000333000,  -0.04000,
,,,-00.000000332800,  -0.04000,
,,,-00.000000332600,  -0.04000,
,,,-00.000000332400,  -0.04000,
,,,-00.000000332200,  -0.04000,
,,,-00.000000332000,   0.00000,
,,,-00.000000331800,   0.00000,
,,,-00.000000331600,   0.00000,
,,,-00.000000331400,   0.00000,
,,,-00.000000331200,   0.00000,
,,,-00.000000331000,   0.00000,
,,,-00.000000330800,  -0.04000,
,,,-00.000000330600,  -0.04000,
,,,-00.000000330400,  -0.04000,
,,,-00.000000330200,  -0.04000,
,,,-00.000000330000,  -0.04000,
,,,-00.000000329800,  -0.04000,
,,,-00.000000329600,  -0.04000,
,,,-00.000000329400,  -0.04000,
,,,-00.000000329200,  -0.04000,
,,,-00.000000329000,   0.00000,
,,,-00.000000328800,  -0.04000,
,,,-00.000000328600,  -0.04000,
,,,-00.000000328400,  -0.04000,
,,,-00.000000328200,  -0.04000,
,,,-00.000000328000,  -0.04000,
,,,-00.000000327800,  -0.04000,
,,,-00.000000327600,  -0.04000,
,,,-00.000000327400,  -0.04000,
,,,-00.000000327200,  -0.04000,
,,,-00.000000327000,   0.00000,
,,,-00.000000326800,   0.00000,
,,,-00.000000326600,   0.00000,
,,,-00.000000326400,   0.00000,
,,,-00.000000326200,   0.04000,
,,,-00.000000326000,   0.04000,
,,,-00.000000325800,   0.00000,
,,,-00.000000325600,   0.00000,
,,,-00.000000325400,  -0.04000,
,,,-00.000000325200,  -0.04000,
,,,-00.000000325000,  -0.04000,
,,,-00.000000324800,  -0.04000,
,,,-00.000000324600,  -0.04000,
,,,-00.000000324400,  -0.04000,
,,,-00.000000324200,  -0.04000,
,,,-00.000000324000,  -0.04000,
,,,-00.000000323800,  -0.08000,
,,,-00.000000323600,  -0.08000,
,,,-00.000000323400,  -0.08000,
,,,-00.000000323200,  -0.08000,
,,,-00.000000323000,  -0.08000,
,,,-00.000000322800,  -0.08000,
,,,-00.000000322600,  -0.08000,
,,,-00.000000322400,  -0.08000,
,,,-00.000000322200,  -0.08000,
,,,-00.000000322000,  -0.04000,
,,,-00.000000321800,  -0.04000,
,,,-00.000000321600,  -0.04000,
,,,-00.000000321400,  -0.04000,
,,,-00.000000321200,   0.00000,
,,,-00.000000321000,   0.00000,
,,,-00.000000320800,  -0.04000,
,,,-00.000000320600,  -0.04000,
,,,-00.000000320400,  -0.08000,
,,,-00.000000320200,  -0.08000,
,,,-00.000000320000,  -0.08000,
,,,-00.000000319800,  -0.12000,
,,,-00.000000319600,  -0.12000,
,,,-00.000000319400,  -0.12000,
,,,-00.000000319200,  -0.12000,
,,,-00.000000319000,  -0.08000,
,,,-00.000000318800,  -0.08000,
,,,-00.000000318600,  -0.08000,
,,,-00.000000318400,  -0.08000,
,,,-00.000000318200,  -0.08000,
,,,-00.000000318000,  -0.04000,
,,,-00.000000317800,  -0.04000,
,,,-00.000000317600,  -0.04000,
,,,-00.000000317400,  -0.04000,
,,,-00.000000317200,  -0.04000,
,,,-00.000000317000,  -0.04000,
,,,-00.000000316800,  -0.08000,
,,,-00.000000316600,  -0.08000,
,,,-00.000000316400,  -0.08000,
,,,-00.000000316200,  -0.08000,
,,,-00.000000316000,  -0.08000,
,,,-00.000000315800,  -0.08000,
,,,-00.000000315600,  -0.08000,
,,,-00.000000315400,  -0.08000,
,,,-00.000000315200,  -0.08000,
,,,-00.000000315000,  -0.04000,
,,,-00.000000314800,  -0.04000,
,,,-00.000000314600,  -0.04000,
,,,-00.000000314400,  -0.04000,
,,,-00.000000314200,  -0.04000,
,,,-00.000000314000,  -0.04000,
,,,-00.000000313800,  -0.08000,
,,,-00.000000313600,  -0.08000,
,,,-00.000000313400,  -0.08000,
,,,-00.000000313200,  -0.08000,
,,,-00.000000313000,  -0.08000,
,,,-00.000000312800,  -0.08000,
,,,-00.000000312600,  -0.12000,
,,,-00.000000312400,  -0.12000,
,,,-00.000000312200,  -0.08000,
,,,-00.000000312000,  -0.08000,
,,,-00.000000311800,  -0.08000,
,,,-00.000000311600,  -0.08000,
,,,-00.000000311400,  -0.08000,
,,,-00.000000311200,  -0.08000,
,,,-00.000000311000,  -0.04000,
,,,-00.000000310800,  -0.08000,
,,,-00.000000310600,  -0.08000,
,,,-00.000000310400,  -0.08000,
,,,-00.000000310200,  -0.08000,
,,,-00.000000310000,  -0.08000,
,,,-00.000000309800,  -0.08000,
,,,-00.000000309600,  -0.08000,
,,,-00.000000309400,  -0.08000,
,,,-00.000000309200,  -0.08000,
,,,-00.000000309000,  -0.04000,
,,,-00.000000308800,  -0.04000,
,,,-00.000000308600,  -0.04000,
,,,-00.000000308400,  -0.04000,
,,,-00.000000308200,  -0.04000,
,,,-00.000000308000,  -0.04000,
,,,-00.000000307800,  -0.04000,
,,,-00.000000307600,  -0.04000,
,,,-00.000000307400,  -0.04000,
,,,-00.000000307200,  -0.04000,
,,,-00.000000307000,  -0.04000,
,,,-00.000000306800,  -0.04000,
,,,-00.000000306600,  -0.04000,
,,,-00.000000306400,  -0.04000,
,,,-00.000000306200,  -0.04000,
,,,-00.000000306000,  -0.04000,
,,,-00.000000305800,  -0.04000,
,,,-00.000000305600,  -0.04000,
,,,-00.000000305400,  -0.04000,
,,,-00.000000305200,  -0.04000,
,,,-00.000000305000,  -0.04000,
,,,-00.000000304800,  -0.04000,
,,,-00.000000304600,  -0.04000,
,,,-00.000000304400,  -0.04000,
,,,-00.000000304200,  -0.04000,
,,,-00.000000304000,  -0.04000,
,,,-00.000000303800,  -0.04000,
,,,-00.000000303600,  -0.04000,
,,,-00.000000303400,  -0.04000,
,,,-00.000000303200,  -0.04000,
,,,-00.000000303000,  -0.04000,
,,,-00.000000302800,  -0.04000,
,,,-00.000000302600,  -0.04000,
,,,-00.000000302400,  -0.04000,
,,,-00.000000302200,  -0.04000,
,,,-00.000000302000,  -0.04000,
,,,-00.000000301800,  -0.04000,
,,,-00.000000301600,  -0.04000,
,,,-00.000000301400,  -0.04000,
,,,-00.000000301200,  -0.04000,
,,,-00.000000301000,   0.00000,
,,,-00.000000300800,   0.00000,
,,,-00.000000300600,   0.00000,
,,,-00.000000300400,   0.00000,
,,,-00.000000300200,   0.00000,
,,,-00.000000300000,   0.00000,
,,,-00.000000299800,  -0.04000,
,,,-00.000000299600,  -0.04000,
,,,-00.000000299400,  -0.04000,
,,,-00.000000299200,  -0.04000,
,,,-00.000000299000,  -0.04000,
,,,-00.000000298800,  -0.04000,
,,,-00.000000298600,  -0.04000,
,,,-00.000000298400,  -0.04000,
,,,-00.000000298200,  -0.04000,
,,,-00.000000298000,  -0.04000,
,,,-00.000000297800,  -0.08000,
,,,-00.000000297600,  -0.08000,
,,,-00.000000297400,  -0.08000,
,,,-00.000000297200,  -0.08000,
,,,-00.000000297000,  -0.08000,
,,,-00.000000296800,  -0.08000,
,,,-00.000000296600,  -0.12000,
,,,-00.000000296400,  -0.12000,
,,,-00.000000296200,  -0.08000,
,,,-00.000000296000,  -0.08000,
,,,-00.000000295800,  -0.08000,
,,,-00.000000295600,  -0.08000,
,,,-00.000000295400,  -0.08000,
,,,-00.000000295200,  -0.08000,
,,,-00.000000295000,  -0.04000,
,,,-00.000000294800,  -0.04000,
,,,-00.000000294600,  -0.04000,
,,,-00.000000294400,  -0.04000,
,,,-00.000000294200,  -0.04000,
,,,-00.000000294000,  -0.04000,
,,,-00.000000293800,  -0.04000,
,,,-00.000000293600,  -0.04000,
,,,-00.000000293400,  -0.04000,
,,,-00.000000293200,  -0.04000,
,,,-00.000000293000,  -0.04000,
,,,-00.000000292800,  -0.04000,
,,,-00.000000292600,  -0.04000,
,,,-00.000000292400,  -0.04000,
,,,-00.000000292200,  -0.04000,
,,,-00.000000292000,  -0.04000,
,,,-00.000000291800,  -0.04000,
,,,-00.000000291600,  -0.04000,
,,,-00.000000291400,  -0.04000,
,,,-00.000000291200,  -0.04000,
,,,-00.000000291000,   0.00000,
,,,-00.000000290800,   0.00000,
,,,-00.000000290600,   0.00000,
,,,-00.000000290400,   0.00000,
,,,-00.000000290200,   0.00000,
,,,-00.000000290000,   0.00000,
,,,-00.000000289800,   0.00000,
,,,-00.000000289600,   0.00000,
,,,-00.000000289400,   0.00000,
,,,-00.000000289200,   0.00000,
,,,-00.000000289000,   0.00000,
,,,-00.000000288800,   0.00000,
,,,-00.000000288600,   0.00000,
,,,-00.000000288400,   0.00000,
,,,-00.000000288200,   0.00000,
,,,-00.000000288000,   0.00000,
,,,-00.000000287800,  -0.04000,
,,,-00.000000287600,  -0.04000,
,,,-00.000000287400,  -0.08000,
,,,-00.000000287200,  -0.08000,
,,,-00.000000287000,  -0.08000,
,,,-00.000000286800,  -0.12000,
,,,-00.000000286600,  -0.12000,
,,,-00.000000286400,  -0.12000,
,,,-00.000000286200,  -0.12000,
,,,-00.000000286000,  -0.08000,
,,,-00.000000285800,  -0.08000,
,,,-00.000000285600,  -0.08000,
,,,-00.000000285400,  -0.04000,
,,,-00.000000285200,  -0.04000,
,,,-00.000000285000,   0.00000,
,,,-00.000000284800,   0.00000,
,,,-00.000000284600,  -0.04000,
,,,-00.000000284400,  -0.04000,
,,,-00.000000284200,  -0.04000,
,,,-00.000000284000,  -0.04000,
,,,-00.000000283800,  -0.04000,
,,,-00.000000283600,  -0.04000,
,,,-00.000000283400,  -0.04000,
,,,-00.000000283200,  -0.04000,
,,,-00.000000283000,   0.00000,
,,,-00.000000282800,   0.00000,
,,,-00.000000282600,   0.00000,
,,,-00.000000282400,   0.00000,
,,,-00.000000282200,   0.00000,
,,,-00.000000282000,   0.00000,
,,,-00.000000281800,   0.00000,
,,,-00.000000281600,   0.00000,
,,,-00.000000281400,   0.00000,
,,,-00.000000281200,   0.00000,
,,,-00.000000281000,   0.00000,
,,,-00.000000280800,  -0.04000,
,,,-00.000000280600,  -0.04000,
,,,-00.000000280400,  -0.04000,
,,,-00.000000280200,  -0.04000,
,,,-00.000000280000,  -0.04000,
,,,-00.000000279800,  -0.04000,
,,,-00.000000279600,  -0.04000,
,,,-00.000000279400,  -0.04000,
,,,-00.000000279200,  -0.04000,
,,,-00.000000279000,   0.00000,
,,,-00.000000278800,  -0.04000,
,,,-00.000000278600,  -0.04000,
,,,-00.000000278400,  -0.04000,
,,,-00.000000278200,  -0.04000,
,,,-00.000000278000,  -0.04000,
,,,-00.000000277800,  -0.04000,
,,,-00.000000277600,  -0.04000,
,,,-00.000000277400,  -0.04000,
,,,-00.000000277200,  -0.04000,
,,,-00.000000277000,  -0.04000,
,,,-00.000000276800,  -0.04000,
,,,-00.000000276600,  -0.04000,
,,,-00.000000276400,  -0.04000,
,,,-00.000000276200,  -0.04000,
,,,-00.000000276000,  -0.04000,
,,,-00.000000275800,  -0.04000,
,,,-00.000000275600,  -0.04000,
,,,-00.000000275400,  -0.04000,
,,,-00.000000275200,  -0.04000,
,,,-00.000000275000,  -0.04000,
,,,-00.000000274800,  -0.08000,
,,,-00.000000274600,  -0.08000,
,,,-00.000000274400,  -0.08000,
,,,-00.000000274200,  -0.08000,
,,,-00.000000274000,  -0.08000,
,,,-00.000000273800,  -0.08000,
,,,-00.000000273600,  -0.12000,
,,,-00.000000273400,  -0.12000,
,,,-00.000000273200,  -0.08000,
,,,-00.000000273000,  -0.08000,
,,,-00.000000272800,  -0.08000,
,,,-00.000000272600,  -0.08000,
,,,-00.000000272400,  -0.08000,
,,,-00.000000272200,  -0.08000,
,,,-00.000000272000,  -0.04000,
,,,-00.000000271800,  -0.04000,
,,,-00.000000271600,  -0.04000,
,,,-00.000000271400,  -0.04000,
,,,-00.000000271200,  -0.04000,
,,,-00.000000271000,  -0.04000,
,,,-00.000000270800,  -0.08000,
,,,-00.000000270600,  -0.08000,
,,,-00.000000270400,  -0.08000,
,,,-00.000000270200,  -0.08000,
,,,-00.000000270000,  -0.08000,
,,,-00.000000269800,  -0.12000,
,,,-00.000000269600,  -0.12000,
,,,-00.000000269400,  -0.12000,
,,,-00.000000269200,  -0.12000,
,,,-00.000000269000,  -0.08000,
,,,-00.000000268800,  -0.08000,
,,,-00.000000268600,  -0.08000,
,,,-00.000000268400,  -0.04000,
,,,-00.000000268200,  -0.04000,
,,,-00.000000268000,   0.00000,
,,,-00.000000267800,   0.00000,
,,,-00.000000267600,  -0.04000,
,,,-00.000000267400,  -0.04000,
,,,-00.000000267200,  -0.04000,
,,,-00.000000267000,  -0.04000,
,,,-00.000000266800,  -0.04000,
,,,-00.000000266600,  -0.04000,
,,,-00.000000266400,  -0.04000,
,,,-00.000000266200,  -0.04000,
,,,-00.000000266000,   0.00000,
,,,-00.000000265800,  -0.04000,
,,,-00.000000265600,  -0.04000,
,,,-00.000000265400,  -0.04000,
,,,-00.000000265200,  -0.04000,
,,,-00.000000265000,  -0.04000,
,,,-00.000000264800,  -0.04000,
,,,-00.000000264600,  -0.04000,
,,,-00.000000264400,  -0.04000,
,,,-00.000000264200,  -0.04000,
,,,-00.000000264000,   0.00000,
,,,-00.000000263800,   0.00000,
,,,-00.000000263600,   0.00000,
,,,-00.000000263400,   0.00000,
,,,-00.000000263200,   0.00000,
,,,-00.000000263000,   0.00000,
,,,-00.000000262800,   0.00000,
,,,-00.000000262600,   0.00000,
,,,-00.000000262400,   0.00000,
,,,-00.000000262200,   0.00000,
,,,-00.000000262000,   0.04000,
,,,-00.000000261800,   0.04000,
,,,-00.000000261600,   0.04000,
,,,-00.000000261400,   0.04000,
,,,-00.000000261200,   0.04000,
,,,-00.000000261000,   0.08000,
,,,-00.000000260800,   0.08000,
,,,-00.000000260600,   0.08000,
,,,-00.000000260400,   0.12000,
,,,-00.000000260200,   0.12000,
,,,-00.000000260000,   0.16000,
,,,-00.000000259800,   0.16000,
,,,-00.000000259600,   0.16000,
,,,-00.000000259400,   0.20000,
,,,-00.000000259200,   0.20000,
,,,-00.000000259000,   0.24000,
,,,-00.000000258800,   0.24000,
,,,-00.000000258600,   0.28000,
,,,-00.000000258400,   0.32000,
,,,-00.000000258200,   0.36000,
,,,-00.000000258000,   0.40000,
,,,-00.000000257800,   0.40000,
,,,-00.000000257600,   0.44000,
,,,-00.000000257400,   0.44000,
,,,-00.000000257200,   0.48000,
,,,-00.000000257000,   0.52000,
,,,-00.000000256800,   0.56000,
,,,-00.000000256600,   0.60000,
,,,-00.000000256400,   0.64000,
,,,-00.000000256200,   0.68000,
,,,-00.000000256000,   0.76000,
,,,-00.000000255800,   0.80000,
,,,-00.000000255600,   0.84000,
,,,-00.000000255400,   0.88000,
,,,-00.000000255200,   0.92000,
,,,-00.000000255000,   0.96000,
,,,-00.000000254800,   1.00000,
,,,-00.000000254600,   1.04000,
,,,-00.000000254400,   1.12000,
,,,-00.000000254200,   1.16000,
,,,-00.000000254000,   1.24000,
,,,-00.000000253800,   1.28000,
,,,-00.000000253600,   1.36000,
,,,-00.000000253400,   1.44000,
,,,-00.000000253200,   1.52000,
,,,-00.000000253000,   1.60000,
,,,-00.000000252800,   1.64000,
,,,-00.000000252600,   1.72000,
,,,-00.000000252400,   1.76000,
,,,-00.000000252200,   1.84000,
,,,-00.000000252000,   1.92000,
,,,-00.000000251800,   1.96000,
,,,-00.000000251600,   2.04000,
,,,-00.000000251400,   2.12000,
,,,-00.000000251200,   2.20000,
,,,-00.000000251000,   2.28000,
,,,-00.000000250800,   2.32000,
,,,-00.000000250600,   2.40000,
,,,-00.000000250400,   2.48000,
,,,-00.000000250200,   2.56000,
,,,-00.000000250000,   2.64000,
,,,-00.000000249800,   2.68000,
,,,-00.000000249600,   2.76000,
,,,-00.000000249400,   2.84000,
,,,-00.000000249200,   2.92000,
,,,-00.000000249000,   3.00000,
,,,-00.000000248800,   3.04000,
,,,-00.000000248600,   3.12000,
,,,-00.000000248400,   3.20000,
,,,-00.000000248200,   3.28000,
,,,-00.000000248000,   3.36000,
,,,-00.000000247800,   3.40000,
,,,-00.000000247600,   3.48000,
,,,-00.000000247400,   3.56000,
,,,-00.000000247200,   3.64000,
,,,-00.000000247000,   3.72000,
,,,-00.000000246800,   3.76000,
,,,-00.000000246600,   3.84000,
,,,-00.000000246400,   3.88000,
,,,-00.000000246200,   3.92000,
,,,-00.000000246000,   4.00000,
,,,-00.000000245800,   4.04000,
,,,-00.000000245600,   4.08000,
,,,-00.000000245400,   4.16000,
,,,-00.000000245200,   4.20000,
,,,-00.000000245000,   4.28000,
,,,-00.000000244800,   4.32000,
,,,-00.000000244600,   4.40000,
,,,-00.000000244400,   4.44000,
,,,-00.000000244200,   4.48000,
,,,-00.000000244000,   4.56000,
,,,-00.000000243800,   4.60000,
,,,-00.000000243600,   4.60000,
,,,-00.000000243400,   4.64000,
,,,-00.000000243200,   4.68000,
,,,-00.000000243000,   4.72000,
,,,-00.000000242800,   4.72000,
,,,-00.000000242600,   4.76000,
,,,-00.000000242400,   4.80000,
,,,-00.000000242200,   4.84000,
,,,-00.000000242000,   4.88000,
,,,-00.000000241800,   4.88000,
,,,-00.000000241600,   4.92000,
,,,-00.000000241400,   4.96000,
,,,-00.000000241200,   4.96000,
,,,-00.000000241000,   5.00000,
,,,-00.000000240800,   5.00000,
,,,-00.000000240600,   5.00000,
,,,-00.000000240400,   5.00000,
,,,-00.000000240200,   5.04000,
,,,-00.000000240000,   5.04000,
,,,-00.000000239800,   5.04000,
,,,-00.000000239600,   5.04000,
,,,-00.000000239400,   5.04000,
,,,-00.000000239200,   5.08000,
,,,-00.000000239000,   5.08000,
,,,-00.000000238800,   5.08000,
,,,-00.000000238600,   5.04000,
,,,-00.000000238400,   5.04000,
,,,-00.000000238200,   5.04000,
,,,-00.000000238000,   5.04000,
,,,-00.000000237800,   5.00000,
,,,-00.000000237600,   5.00000,
,,,-00.000000237400,   4.96000,
,,,-00.000000237200,   4.92000,
,,,-00.000000237000,   4.92000,
,,,-00.000000236800,   4.88000,
,,,-00.000000236600,   4.88000,
,,,-00.000000236400,   4.84000,
,,,-00.000000236200,   4.80000,
,,,-00.000000236000,   4.80000,
,,,-00.000000235800,   4.76000,
,,,-00.000000235600,   4.72000,
,,,-00.000000235400,   4.68000,
,,,-00.000000235200,   4.64000,
,,,-00.000000235000,   4.60000,
,,,-00.000000234800,   4.56000,
,,,-00.000000234600,   4.48000,
,,,-00.000000234400,   4.44000,
,,,-00.000000234200,   4.40000,
,,,-00.000000234000,   4.36000,
,,,-00.000000233800,   4.28000,
,,,-00.000000233600,   4.24000,
,,,-00.000000233400,   4.20000,
,,,-00.000000233200,   4.12000,
,,,-00.000000233000,   4.08000,
,,,-00.000000232800,   4.00000,
,,,-00.000000232600,   3.92000,
,,,-00.000000232400,   3.88000,
,,,-00.000000232200,   3.80000,
,,,-00.000000232000,   3.76000,
,,,-00.000000231800,   3.68000,
,,,-00.000000231600,   3.64000,
,,,-00.000000231400,   3.60000,
,,,-00.000000231200,   3.52000,
,,,-00.000000231000,   3.48000,
,,,-00.000000230800,   3.40000,
,,,-00.000000230600,   3.32000,
,,,-00.000000230400,   3.24000,
,,,-00.000000230200,   3.16000,
,,,-00.000000230000,   3.12000,
,,,-00.000000229800,   3.04000,
,,,-00.000000229600,   2.96000,
,,,-00.000000229400,   2.88000,
,,,-00.000000229200,   2.80000,
,,,-00.000000229000,   2.76000,
,,,-00.000000228800,   2.68000,
,,,-00.000000228600,   2.60000,
,,,-00.000000228400,   2.52000,
,,,-00.000000228200,   2.44000,
,,,-00.000000228000,   2.36000,
,,,-00.000000227800,   2.28000,
,,,-00.000000227600,   2.20000,
,,,-00.000000227400,   2.16000,
